[
{
  "pk": 1,
  "model": "main.answer",
  "fields": {
    "user_post": 3,
    "create_date": "2015-05-22T05:18:27.103Z",
    "edit_date": null,
    "question": 1,
    "reports": [],
    "content": "I am the first one here.",
    "photos": [],
    
    "unique_id": "ANXktvaGJa3wZNEbWdMZe6rY559"
  }
},
{
  "pk": 2,
  "model": "main.answer",
  "fields": {
    "user_post": 4,
    "create_date": "2015-05-22T05:20:24.298Z",
    "edit_date": null,
    "question": 1,
    "reports": [],
    "content": "i am the second",
    "photos": [],
    
    "unique_id": "ANYdaGs2NecvnteCpfqw6Aev616"
  }
},
{
  "pk": 3,
  "model": "main.answer",
  "fields": {
    "user_post": 6,
    "create_date": "2015-05-23T21:27:06.936Z",
    "edit_date": null,
    "question": 6,
    "reports": [],
    "content": "try to find some good resources.",
    "photos": [],
    
    "unique_id": "AN4JgoZNAvssRP75557r533V402"
  }
},
{
  "pk": 7,
  "model": "main.answer",
  "fields": {
    "user_post": 3,
    "create_date": "2015-05-27T21:20:51.901Z",
    "edit_date": null,
    "question": 5,
    "reports": [],
    "content": "say \"Ciao\"",
    "photos": [],
    
    "unique_id": "AN76PDUqKzXtyH3jkHfU6Kjx269"
  }
},
{
  "pk": 23,
  "model": "main.answer",
  "fields": {
    "user_post": 3,
    "create_date": "2015-05-29T05:25:34.657Z",
    "edit_date": null,
    "question": 11,
    "reports": [],
    "content": "hello cat",
    "photos": [],
    
    "unique_id": "ANSkJAN26QV5sN3FDCXkWPjG566"
  }
},
{
  "pk": 35,
  "model": "main.answer",
  "fields": {
    "user_post": 3,
    "create_date": "2015-06-06T14:23:44.696Z",
    "edit_date": null,
    "question": 11,
    "reports": [],
    "content": "hello world.",
    "photos": [],
    
    "unique_id": "ANm3WJc8cdFfiw35D7u5mB9j557"
  }
},
{
  "pk": 36,
  "model": "main.answer",
  "fields": {
    "user_post": 3,
    "create_date": "2015-06-06T14:24:00.590Z",
    "edit_date": null,
    "question": 11,
    "reports": [],
    "content": "yes hello world world world.",
    "photos": [],
    
    "unique_id": "ANEsf8UT2nqnB9PxpEPkhGxb789"
  }
},
{
  "pk": 37,
  "model": "main.answer",
  "fields": {
    "user_post": 3,
    "create_date": "2015-06-07T20:56:28.342Z",
    "edit_date": null,
    "question": 10,
    "reports": [],
    "content": "clear the quad.",
    "photos": [],
    
    "unique_id": "ANUX22a6q3FnbW75gAi2kFme951"
  }
},
{
  "pk": 38,
  "model": "main.answer",
  "fields": {
    "user_post": 3,
    "create_date": "2015-06-08T02:35:21.021Z",
    "edit_date": null,
    "question": 10,
    "reports": [],
    "content": "yo yo",
    "photos": [],
    
    "unique_id": "AN4r3s2aHVApFm4h2XmTQNz4804"
  }
},
{
  "pk": 40,
  "model": "main.answer",
  "fields": {
    "user_post": 3,
    "create_date": "2015-06-08T23:25:58.049Z",
    "edit_date": null,
    "question": 11,
    "reports": [],
    "content": "Philadelphia",
    "photos": [],
    
    "unique_id": "ANuAPF9Rwu7yGsFohLtVWyw8323"
  }
},
{
  "pk": 41,
  "model": "main.answer",
  "fields": {
    "user_post": 3,
    "create_date": "2015-06-08T23:26:11.309Z",
    "edit_date": null,
    "question": 11,
    "reports": [],
    "content": "paris",
    "photos": [],
    
    "unique_id": "ANfX8D7FatcoCU9sfT8S5SLx495"
  }
},
{
  "pk": 42,
  "model": "main.answer",
  "fields": {
    "user_post": 3,
    "create_date": "2015-06-10T01:50:26.484Z",
    "edit_date": null,
    "question": 11,
    "reports": [],
    "content": "hello guys. ",
    "photos": [],
    
    "unique_id": "ANkSCZuJfJtxiaHDjUbmpoM2489"
  }
},
{
  "pk": 43,
  "model": "main.answer",
  "fields": {
    "user_post": 3,
    "create_date": "2015-06-10T02:29:07.837Z",
    "edit_date": null,
    "question": 10,
    "reports": [],
    "content": "yes yes yes yes yo yo yo yo",
    "photos": [],
    
    "unique_id": "ANxKfzWNhAdiaJ3rbHd7DcSk290"
  }
},
{
  "pk": 45,
  "model": "main.answer",
  "fields": {
    "user_post": 3,
    "create_date": "2015-06-10T16:00:54.257Z",
    "edit_date": null,
    "question": 11,
    "reports": [],
    "content": "If you have a clear problem and a clear solution in human or pseudo-human language, all you need is a Coder to code it in the appropriate computer language for you.\nIf you have a clear problem but don't have a solution, you can hire a Programmer to solve it and code it for you.\nIf you have a feeling that you have a problem but cannot even define it clearly, then you need a Developer to help you find the problem first, and then solve it.\nIf you have a problem, but you know it's just the beginning of a huge series of problems and you cannot predict what's gonna happen next but you want to be as future-proof as possible, you need an Architect.  Same if you are in the middle of that mass, having tens or hundreds of developers working on different stuffs and none of them care about the big picture.\nIf you have no idea about what is needed and you don't really care about the details, and having it done as a whole blackbox works fine for you, then can get a Consultant.\nIf you want to write an email to any of the above persons but have forgotten this breakdown, you can just call them Engineer!\n",
    "photos": [],
    
    "unique_id": "ANADFZLbT7kq23yg9wLqZkiQ038"
  }
},
{
  "pk": 46,
  "model": "main.answer",
  "fields": {
    "user_post": 3,
    "create_date": "2015-06-10T16:34:02.312Z",
    "edit_date": null,
    "question": 11,
    "reports": [],
    "content": "If you have a clear problem and a clear solution in human or pseudo-human language, all you need is a Coder to code it in the appropriate computer language for you.\nIf you have a clear problem but don't have a solution, you can hire a Programmer to solve it and code it for you.\nIf you have a feeling that you have a problem but cannot even define it clearly, then you need a Developer to help you find the problem first, and then solve it.\nIf you have a problem, but you know it's just the beginning of a huge series of problems and you cannot predict what's gonna happen next but you want to be as future-proof as possible, you need an Architect.  Same if you are in the middle of that mass, having tens or hundreds of developers working on different stuffs and none of them care about the big picture.\nIf you have no idea about what is needed and you don't really care about the details, and having it done as a whole blackbox works fine for you, then can get a Consultant.\nIf you want to write an email to any of the above persons but have forgotten this breakdown, you can just call them Engineer!\nIf you have a clear problem and a clear solution in human or pseudo-human language, all you need is a Coder to code it in the appropriate computer language for you.\nIf you have a clear problem but don't have a solution, you can hire a Programmer to solve it and code it for you.\nIf you have a feeling that you have a problem but cannot even define it clearly, then you need a Developer to help you find the problem first, and then solve it.\nIf you have a problem, but you know it's just the beginning of a huge series of problems and you cannot predict what's gonna happen next but you want to be as future-proof as possible, you need an Architect.  Same if you are in the middle of that mass, having tens or hundreds of developers working on different stuffs and none of them care about the big picture.\nIf you have no idea about what is needed and you don't really care about the details, and having it done as a whole blackbox works fine for you, then can get a Consultant.\nIf you want to write an email to any of the above persons but have forgotten this breakdown, you can just call them Engineer!\n",
    "photos": [],
    
    "unique_id": "ANXcRon9AVHAsnqxXRdFAoHd656"
  }
},
{
  "pk": 47,
  "model": "main.answer",
  "fields": {
    "user_post": 3,
    "create_date": "2015-06-19T13:16:35.517Z",
    "edit_date": null,
    "question": 1,
    "reports": [],
    "content": "ha beo",
    "photos": [],
    
    "unique_id": "ANVozzuHNg5TTtwyW5KMVFLJ706"
  }
},
{
  "pk": 48,
  "model": "main.answer",
  "fields": {
    "user_post": 3,
    "create_date": "2015-06-19T13:16:49.313Z",
    "edit_date": null,
    "question": 1,
    "reports": [],
    "content": "habeo",
    "photos": [],
    
    "unique_id": "ANK4inKoXGiwoiJC4FiEYKr4329"
  }
}
]