[
{
  "pk": 1,
  "model": "main.tag",
  "fields": {
    "value": "unitedstates",
    "unique_id": "TGHYnLKVtbQCdPQYCHsP4kPF931"
  }
},
{
  "pk": 2,
  "model": "main.tag",
  "fields": {
    "value": "california",
    "unique_id": "TGY4ATiftH64PvzzU3R89JEp139"
  }
},
{
  "pk": 3,
  "model": "main.tag",
  "fields": {
    "value": "world",
    "unique_id": "TGCzqsbzz9bLuBnxctP6dVuZ649"
  }
},
{
  "pk": 4,
  "model": "main.tag",
  "fields": {
    "value": "environment",
    "unique_id": "TGhZpA5meAKgGYNTMzqMkAQN900"
  }
},
{
  "pk": 5,
  "model": "main.tag",
  "fields": {
    "value": "paris",
    "unique_id": "TGLk3cbP3c8GauKjcVpkHBLv002"
  }
},
{
  "pk": 6,
  "model": "main.tag",
  "fields": {
    "value": "rome",
    "unique_id": "TGfEiwGk2bGCjdDoeh42YcNG436"
  }
},
{
  "pk": 7,
  "model": "main.tag",
  "fields": {
    "value": "nyc",
    "unique_id": "TGtUqrpP9WbTyqveuqEPFECD236"
  }
},
{
  "pk": 8,
  "model": "main.tag",
  "fields": {
    "value": "sanfrancisco",
    "unique_id": "TGEJdMpqrv9eYoMjNuVjMs35182"
  }
},
{
  "pk": 9,
  "model": "main.tag",
  "fields": {
    "value": "tokyo",
    "unique_id": "TGzJWxVbACrW33B2JPvzruBR279"
  }
},
{
  "pk": 10,
  "model": "main.tag",
  "fields": {
    "value": "barcelona",
    "unique_id": "TGNRgZVfz2E2cyd3DpJDP5Cm729"
  }
},
{
  "pk": 11,
  "model": "main.tag",
  "fields": {
    "value": "madrid",
    "unique_id": "TGrhhLnRY47PBQHScMvm9SfM268"
  }
},
{
  "pk": 12,
  "model": "main.tag",
  "fields": {
    "value": "milan",
    "unique_id": "TGKV4CEntChwWANB4xYrZiif417"
  }
},
{
  "pk": 13,
  "model": "main.tag",
  "fields": {
    "value": "it",
    "unique_id": "TGRQ4SFASfwhVaKj6vvmD5xL071"
  }
},
{
  "pk": 14,
  "model": "main.tag",
  "fields": {
    "value": "software",
    "unique_id": "TGFyNKrFTY7WoLa5K8EYw36u879"
  }
},
{
  "pk": 15,
  "model": "main.tag",
  "fields": {
    "value": "hardware",
    "unique_id": "TGzJyPXFaJgcB33maMtffZk7611"
  }
}
]